{
  "version": 1,
  "author": "Thomas",
  "editor": "wokwi",
  "parts": [
    { "type": "wokwi-arduino-nano", "id": "nano", "top": 0, "left": 0, "attrs": {} },
    {
      "type": "wokwi-led",
      "id": "led1",
      "top": -204.37,
      "left": 177,
      "attrs": { "color": "red" }
    },
    {
      "type": "wokwi-led",
      "id": "led2",
      "top": -157.74,
      "left": 177.47,
      "attrs": { "color": "yellow" }
    },
    {
      "type": "wokwi-led",
      "id": "led3",
      "top": -109.05,
      "left": 178.8,
      "attrs": { "color": "green" }
    },
    {
      "type": "wokwi-led",
      "id": "led4",
      "top": -32.29,
      "left": 342.41,
      "attrs": { "color": "red" }
    },
    {
      "type": "wokwi-led",
      "id": "led5",
      "top": 14.34,
      "left": 342.88,
      "attrs": { "color": "yellow" }
    },
    {
      "type": "wokwi-led",
      "id": "led6",
      "top": 63.03,
      "left": 344.21,
      "attrs": { "color": "green" }
    },
    {
      "type": "wokwi-led",
      "id": "led7",
      "top": -159.07,
      "left": 230.2,
      "attrs": { "color": "red" }
    },
    {
      "type": "wokwi-led",
      "id": "led8",
      "top": -108.32,
      "left": 231.52,
      "attrs": { "color": "green" }
    },
    {
      "type": "wokwi-led",
      "id": "led9",
      "top": 10.38,
      "left": 399.09,
      "attrs": { "color": "red" }
    },
    {
      "type": "wokwi-led",
      "id": "led10",
      "top": 61.74,
      "left": 399.76,
      "attrs": { "color": "green" }
    },
    {
      "type": "wokwi-photoresistor-sensor",
      "id": "ldr1",
      "top": -258.4964583333333,
      "left": -77.10333333333335,
      "attrs": {}
    },
    {
      "type": "wokwi-lcd1602",
      "id": "lcd1",
      "top": -198.34,
      "left": 364.88,
      "attrs": { "pins": "i2c" }
    },
    {
      "type": "wokwi-pushbutton",
      "id": "btn1",
      "top": -237.49,
      "left": 247.57,
      "attrs": { "color": "green", "bounce": "1" }
    },
    {
      "type": "wokwi-pushbutton",
      "id": "btn2",
      "top": 46.14,
      "left": 517.3,
      "attrs": { "color": "green" }
    }
  ],
  "connections": [
    [ "led1:C", "nano:GND.2", "black", [ "v6.79", "h-39.82" ] ],
    [ "led2:C", "nano:GND.2", "black", [ "v8.13", "h-51.96" ] ],
    [ "led3:C", "nano:GND.2", "black", [ "v22.32", "h-68.5" ] ],
    [ "led1:A", "nano:12", "red", [ "v11.33", "h-125.01" ] ],
    [ "led2:A", "nano:11", "red", [ "v12.67", "h-129.37" ] ],
    [ "led3:A", "nano:10", "red", [ "v15.84", "h-125.52" ] ],
    [ "led4:C", "nano:GND.1", "black", [ "v9.99", "h-80.08", "v118.67", "h-102.67" ] ],
    [ "led5:C", "nano:GND.1", "black", [ "v11.36", "h-81.21", "v70.67", "h-89.33" ] ],
    [ "led6:C", "nano:GND.1", "black", [ "v10.01", "h-81.88", "v23.33", "h-59.33" ] ],
    [
      "led9:C",
      "nano:GND.1",
      "black",
      [ "v12.66", "h-18.76", "v59.33", "h-118.67", "v14", "h-66" ]
    ],
    [ "led10:C", "nano:GND.1", "black", [ "v34.63", "h-175.43" ] ],
    [ "led7:C", "nano:GND.2", "black", [ "v12.08", "h-22.53", "v60.25", "h-97.37" ] ],
    [ "led8:C", "nano:GND.2", "black", [ "v21.58", "h-121.22" ] ],
    [ "led7:A", "nano:9", "red", [ "v17.83", "h-24.39", "v61.85", "h-182.31" ] ],
    [ "led8:A", "nano:8", "red", [ "v36.29", "h-198.42" ] ],
    [ "ldr1:GND", "nano:GND.2", "black", [ "h0" ] ],
    [ "ldr1:AO", "nano:A0", "red", [ "h13.28", "v46.67", "h-135.85", "v281.15", "h76.17" ] ],
    [ "ldr1:VCC", "nano:5V", "red", [ "h29.72", "v-37.85", "h-235.86", "v495.14", "h203.84" ] ],
    [ "lcd1:GND", "nano:GND.2", "black", [ "h-25.32", "v-128.95", "h-218.26" ] ],
    [ "led4:A", "nano:7", "red", [ "v16.44", "h-102.15", "v-50.83", "h-163.19" ] ],
    [ "led5:A", "nano:6", "red", [ "v17.29", "h-108.64", "v-92.96", "h-155.83" ] ],
    [ "led6:A", "nano:5", "red", [ "v14.75", "h-115.32", "v-133.76", "h-76.24" ] ],
    [
      "led9:A",
      "nano:4",
      "red",
      [ "v11.22", "h11.04", "v96.31", "h-185.93", "v-168.54", "h-52.84" ]
    ],
    [ "led10:A", "nano:3", "red", [ "v50.82", "h-182.24", "v-158.51", "h-90.29" ] ],
    [
      "lcd1:VCC",
      "nano:5V.2",
      "red",
      [ "h-31.39", "v126.81", "h110.35", "v196.63", "h-264.18", "v-127.74" ]
    ],
    [ "lcd1:SDA", "nano:A4", "green", [ "h-25.37", "v111.96", "h109.02", "v206.66", "h-231.41" ] ],
    [ "lcd1:SCL", "nano:A5", "blue", [ "h-20.02", "v98.45", "h108.35", "v215.36", "h-157.17" ] ],
    [ "btn1:1.l", "nano:GND.2", "black", [ "h0" ] ],
    [ "btn2:1.l", "nano:GND.1", "black", [ "h-54.59", "v121.45", "h-252.19" ] ],
    [ "btn1:2.r", "nano:A1", "red", [ "h364.4", "v410.09", "h-624.93" ] ],
    [ "btn2:2.r", "nano:A2", "red", [ "h89.04", "v120.84", "h-129.3" ] ]
  ]
}